Introduction to R
…
tidyverse package has a built in data frame called starwars

Type starwars into your console to print it

Selecting Star Wars Characters

Use the select() function on the starwars data set to select:

name, height, & mass columns and assign it to star_chars

star_chars <- select(starwars, name, height, mass)
star_chars

## # A tibble: 87 x 3
##    name               height  mass
##    <chr>               <int> <dbl>
##  1 Luke Skywalker        172   77.
##  2 C-3PO                 167   75.
##  3 R2-D2                  96   32.
##  4 Darth Vader           202  136.
##  5 Leia Organa           150   49.
##  6 Owen Lars             178  120.
##  7 Beru Whitesun lars    165   75.
##  8 R5-D4                  97   32.
##  9 Biggs Darklighter     183   84.
## 10 Obi-Wan Kenobi        182   77.
## # ... with 77 more rows

Making & Modifying New Columns: mutate()

New columns can be created using the mutate() function.

mutate(data_frame, new_col = operation)

Calculate the ratio of mass to height, call this mh_ratio

star_chars <- mutate(star_chars, mh_ratio = mass / height)
star_chars

## # A tibble: 87 x 4
##    name               height  mass mh_ratio
##    <chr>               <int> <dbl>    <dbl>
##  1 Luke Skywalker        172   77.    0.448
##  2 C-3PO                 167   75.    0.449
##  3 R2-D2                  96   32.    0.333
##  4 Darth Vader           202  136.    0.673
##  5 Leia Organa           150   49.    0.327
##  6 Owen Lars             178  120.    0.674
##  7 Beru Whitesun lars    165   75.    0.455
##  8 R5-D4                  97   32.    0.330
##  9 Biggs Darklighter     183   84.    0.459
## 10 Obi-Wan Kenobi        182   77.    0.423
## # ... with 77 more rows
…
%>%

The pipe allows you to chain functions together.

Sends data frome the left, to the right

Since data_frame is the first argument of almost all of the functions in the tidyverse you can chain these function together.

starwars %>% 
  select(name, mass, height) %>% 
  mutate(mh_ratio = mass / height)

## # A tibble: 87 x 4
##    name                mass height mh_ratio
##    <chr>              <dbl>  <int>    <dbl>
##  1 Luke Skywalker       77.    172    0.448
##  2 C-3PO                75.    167    0.449
##  3 R2-D2                32.     96    0.333
##  4 Darth Vader         136.    202    0.673
##  5 Leia Organa          49.    150    0.327
##  6 Owen Lars           120.    178    0.674
##  7 Beru Whitesun lars   75.    165    0.455
##  8 R5-D4                32.     97    0.330
##  9 Biggs Darklighter    84.    183    0.459
## 10 Obi-Wan Kenobi       77.    182    0.423
## # ... with 77 more rows
…
Exercise!

How many votes were cast for all three candidates in each state?

mutate(election, total_votes = clinton + trump + johnson)

## # A tibble: 51 x 6
##    state         electoral_votes clinton   trump johnson total_votes
##    <chr>                   <int>   <int>   <int>   <int>       <int>
##  1 Alabama                     9  729547 1318255   44467     2092269
##  2 Alaska                      3  116454  163387   18725      298566
##  3 Arizona                    11 1161167 1252401  106327     2519895
##  4 Arkansas                    6  380494  684872   29829     1095195
##  5 California                 55 8753788 4483810  478500    13716098
##  6 Colorado                    9 1338870 1202484  144121     2685475
##  7 Connecticut                 7  897572  673215   48676     1619463
##  8 Delaware                    3  235603  185127   14757      435487
##  9 Dist. of Col.               3  282830   12723    4906      300459
## 10 Florida                    29 4504975 4617886  207043     9329904
## # ... with 41 more rows
…
